Predicting price of diamonds
…
Warning: package 'workflowsets' was built under R version 4.3.3

Warning: package 'yardstick' was built under R version 4.3.3

1 The diamonds Dataset

The dataset contains the prices and other attributes of almost 54,000 diamonds.

Code

data("diamonds")
diamonds

# A tibble: 53,940 × 10
   carat cut       color clarity depth table price     x     y     z
   <dbl> <ord>     <ord> <ord>   <dbl> <dbl> <int> <dbl> <dbl> <dbl>
 1  0.23 Ideal     E     SI2      61.5    55   326  3.95  3.98  2.43
 2  0.21 Premium   E     SI1      59.8    61   326  3.89  3.84  2.31
 3  0.23 Good      E     VS1      56.9    65   327  4.05  4.07  2.31
 4  0.29 Premium   I     VS2      62.4    58   334  4.2   4.23  2.63
 5  0.31 Good      J     SI2      63.3    58   335  4.34  4.35  2.75
 6  0.24 Very Good J     VVS2     62.8    57   336  3.94  3.96  2.48
 7  0.24 Very Good I     VVS1     62.3    57   336  3.95  3.98  2.47
 8  0.26 Very Good H     SI1      61.9    55   337  4.07  4.11  2.53
 9  0.22 Fair      E     VS2      65.1    61   337  3.87  3.78  2.49
10  0.23 Very Good H     VS1      59.4    61   338  4     4.05  2.39
# ℹ 53,930 more rows
…
We can see the preprocessed dataset doing:

Code

d_rec |>
  prep() |>
  bake(new_data = NULL)

# A tibble: 48,546 × 8
   carat   cut color clarity depth table price log_price
   <dbl> <int> <int>   <int> <dbl> <dbl> <int>     <dbl>
 1 1.24      4     7       4  62.9    59  7554      8.93
 2 0.616     5     2       5  62.1    56  1000      6.91
 3 1.01      4     3       2  61.4    57  4586      8.43
 4 0.548     2     2       5  63.2    57   568      6.34
 5 0.566     3     3       6  63.8    55   701      6.55
 6 0.469     1     2       4  65.1    61   337      5.82
 7 0.566     4     1       3  60.9    60   589      6.38
 8 1.00      5     4       3  62.9    56  5107      8.54
 9 0.548     3     1       4  62.5    57   670      6.51
10 1.01      5     4       8  62.5    57  8162      9.01
# ℹ 48,536 more rows
…
